Análisis de Discursos Inaugurales
…
bing <- get_sentiments("bing")  
sentiments_by_year <- tokens_clean %>%
  inner_join(bing, by = "word") %>%   # conserva solo palabras que aparecen en 'bing'
  count(year, sentiment) %>%
  pivot_wider(names_from = sentiment, values_from = n, values_fill = 0) %>%
  mutate(net = positive - negative)   # neto por año
bing

## # A tibble: 6,786 × 2
##    word        sentiment
##    <chr>       <chr>    
##  1 2-faces     negative 
##  2 abnormal    negative 
##  3 abolish     negative 
##  4 abominable  negative 
##  5 abominably  negative 
##  6 abominate   negative 
##  7 abomination negative 
##  8 abort       negative 
##  9 aborted     negative 
## 10 aborts      negative 
## # ℹ 6,776 more rows
…
